<?xml version="1.0" encoding="utf-8"?>
<svg id="svg2" enable-background="new -37.0000916 376.5385437 867.0001221 159.587677" viewBox="-37.0000916 376.5385437 867.0001221 159.587677" xmlns="http://www.w3.org/2000/svg">
   <switch>
      <g>
         <g id="layer1" transform="translate(-2007.7424 -813.39883)">
            <g id="g3316" transform="matrix(3.6066768 0 0 3.6066768 2657.0531 -2304.5166)">
               <g id="g2564" transform="matrix(1.25 0 0 -1.25 -168.88604 891.13798)">
                  <path id="path2566" d="m-5.0254922-96.7060699c-.2077184-.0469589-.3775063-.202301-.5003309-.3522186h3.0886874c-.3160937.5942535-.6972122 1.3366241-.7423687 1.5515671 0-.0000001-1.4142938-1.1000062-1.8459878-1.1993485" fill="#dc241f"/>
               </g>
               <g id="g2568" transform="matrix(1.25 0 0 -1.25 -172.16278 890.37628)">
                  <path id="path2570" d="m-7.1389852-96.2147598c.0198689.3142853 0 1.376358-.1968808 1.6111755 0 0-.1174064-.6484451-.2149439-.8651962-.0668311-.1445007-.6249628-1.3980331-.980794-2.2000122h1.7918c-.0505748.1499176-.1137934.3251266-.1625624.431694-.0993436.2167511-.2564872.7080536-.2366189 1.0223389" fill="#dc241f"/>
               </g>
               <g id="g2572" transform="matrix(1.25 0 0 -1.25 -137.02591 888.01528)">
                  <path id="path2574" d="m15.5243006-94.6919022l-11.7442382-.0126419c-.3937626 0-.7116628.3197021-.7116628.7116623l-.0090315 28.5315247c0 .3937607-.3197062.7134705-.7134688.7134705h-4.4993687c-.3937633 0-.7116628-.3197098-.7116628-.7134705v-33.2657089c0-.3937607.3178995-.7134628.7116628-.7134628h2.7310505c.0577992-.0126495.1137933-.0234833.1752048-.0234833h14.7715149c.3937626 0 .7134695.3197021.7134695.7134705v3.3469772c-.0000002.3919601-.3197071.7116622-.7134697.7116622" fill="#dc241f"/>
               </g>
               <g id="g2576" transform="matrix(1.25 0 0 -1.25 -60.117406 882.59658)">
                  <path id="path2578" d="m65.1302948-91.1968384v14.1700363c0 .3937607.3179016.7134628.7116623.7134628h4.232048c.3955688 0 .7134628-.3197021.7134628-.7134628v-16.5723495-9.7140121c0-.3937607-.317894-.7116623-.7134628-.7116623h-1.873085c0 0-.5707779.0867004-.814621.7784958-.2438431.6917877-.5292282 1.7918015-.5292282 1.7918015s-.2835846 1.3022995-1.0584641.4461365c-.7730713-.8543549-4.1417313-3.4824448-10.7056427-3.4192276-10.4581909.1029587-9.8856087 10.4563828-9.8856087 12.6455536v14.8600235c0 .3937607.319706.7134705.7134705.7134705h4.2320442c.3937607 0 .7116623-.3197098.7116623-.7134705v-15.1508255c0-1.8008347-.1517258-7.4923248 6.4157982-7.4923248 6.081646-.0000002 7.6729546 2.8213576 7.8499642 8.3683546" fill="#dc241f"/>
               </g>
               <g id="g2580" transform="matrix(1.25 0 0 -1.25 -50.619786 874.19758)">
                  <path id="path2582" d="m71.2562637-85.7794876c-.7730789-.8543625-1.0584641.4479446-1.0584641.4479446s-.2835846 1.0982056-.5292358 1.7918015c-.2438431.6917953-.8146133.7784958-.8146133.7784958h-1.873085c-.3937607 0-.7134705-.3197098-.7134705-.7134705l-.0523758-26.4850464c0-.3919525.3197021-.7116623.7134628-.7116623h4.232048c.3919525 0 .7116623.3197098.7116623.7116623v16.5741501c.1896591 1.307724.9536972 5.2525787 5.2001953 5.7836151 1.5569839.195076 2.3842468.0487671 2.3842468.0487671.7297287 0 1.1180725.0975418 1.1180725.9248047 0 .8254547-.0469666 3.2584763-.0469666 3.2584763s-.0505753 1.071106-1.0223389 1.0223312c-.9735641-.0487671-4.4271164-.2926102-6.0328751-1.410675-1.6057508-1.1198807-2.2162626-2.0211945-2.2162626-2.0211945" fill="#dc241f"/>
               </g>
               <g id="g2584" transform="matrix(1.25 0 0 -1.25 -119.27291 873.6992)">
                  <path id="path2586" d="m26.974987-85.4580536c-3.1934509 3.1212006-9.8296127 2.7978821-9.8296127 2.7978821-12.8081207.3955688-12.2698574-8.8253403-12.2698574-8.8253403l-.0036139-.7604294c0-.3937607.3197064-.7134705.7134695-.7134705h4.0911574c.3937616 0 .7116623.3197098.7116623.7134705l.0686359.8579712c0 0 .4768515 4.3675079 6.4374762 4.1001816 6.4212189-.2871933 6.8167877-2.6913071 7.1383018-5.5975647 0 0 .0361233-.6087036-.466013-.7170792-.5021381-.106575-11.4444008-.8977127-15.7848206-2.7978821-4.3422241-1.9019852-3.8762128-6.2424011-3.8762128-6.7445374s-.2131376-7.7903595 11.0867643-8.0378189c6.5657187-.1426926 9.865737 3.5890198 9.865737 3.5890198.2871952.2871933.5743885.5364609.8615818-.1445007.2871933-.680954.5743885-3.0489502 1.4702873-3.1212006.897707-.0722427 1.7231636-.0361252 1.7231636-.0361252s.8958988-.0361176.8958988.7893372-.0361234 16.3248902-.0361234 16.3248902.1986866 5.3934555-2.7978821 8.3231964m-2.9423809-13.776268c0 0-.0343189-.7170868-.1788197-1.8297348-.3702812-2.8683243-2.9423809-5.2742462-6.4934692-5.5975647-3.5528936-.3233185-7.3189259.5021362-7.4977446 3.9466553-.1806259 3.444519 6.4212198 3.7299042 7.4616194 3.8744049s4.6583195.5256195 5.9190826.6105118c.5382615.0361251.86158-.2510681.7893315-1.0042725" fill="#dc241f"/>
               </g>
               <g id="g2588" transform="matrix(1.25 0 0 -1.25 -104.49941 871.97495)">
                  <path id="path2590" d="m36.5038948-84.3459167c-6.5946178.0812836-8.8741074-2.7689819-8.8741074-2.7689819s-.8958988-.9753723-.8146172.2438431c.0812817 1.2228317-.0650253 8.3665543-.0650253 8.3665543 0 .3937607-.3179016.7134705-.7116623.7134705h-4.2320442c-.3937626 0-.7134686-.3197098-.7134686-.7134705v-33.2639084c0-.3937607.319706-.7134628.7134686-.7134628h1.8748875c0 0 .5689678.0867004.8128128.7802963.2456493.6899872.5292301 1.7899933.5292301 1.7899933s.2853889 1.3041153 1.0584641.4479523c.7730751-.8543549 4.1525688-3.7859039 10.7074509-3.4192276 6.5530739.3666687 11.2764206 4.436142 11.195137 14.4518051-.0812798 10.0138472-4.8859062 14.0038527-11.480526 14.0851363m5.6174393-14.7371979c-.0397377-1.8315353.5328445-9.1956177-7.9782066-9.0366669-6.554882.1228256-7.4092388 4.6402588-7.4507828 9.1594925-.0505753 5.6192474 1.1812878 9.9325714 7.9800148 9.8097458 6.7987251-.1210175 7.569992-4.5174332 7.4489746-9.9325714" fill="#dc241f"/>
               </g>
               <g id="g2592" transform="matrix(1.25 0 0 -1.25 -155.67629 885.73398)">
                  <path id="path2594" d="m3.4948068-93.2204971c-.2366188-.4912949-.6087062-.5888367-.845325-.6285706-.2348125-.0397415-.3142877-.1770172-.5888376-.5111694-.27455-.3341599-.6087064-.8435211-1.8080564-2.5937729-1.1975439-1.7484512-4.7937875-1.0801392-6.7969193-.6683197-2.0031309.4136353-2.2993565 1.0422134-2.4565001 2.4366379-.1571436 1.396225.8651934 2.2216873 1.1596127 2.358963.2944188.1372757 1.5913062.6484375 2.396894 1.3546829s2.1024749.8453293 2.299356.8453293c.195075 0 .7261128.0397339 2.4944315.236618 1.7683191.195076 3.5565066-.2763596 4.7739191-.6502533 1.0259504-.3142853 3.0814629-1.4630585 4.0676756-2.0175781v23.8641739c0 1.475708-1.1957378 2.6732483-2.6732502 2.6732483h-2.7382754c.9789877-.8272552 2.454694-2.4763641 2.7021501-4.1272812.3106751-2.0609283-1.9922938-2.7473068-2.1819501-2.8141327-.18785-.0668335-.2691312-.1083755-.2691312-.1083755-.6863751 1.4269332-.0668313 2.0464782.21675 2.4637222.281775.417244-.1354687.619545-.5671625.8092041-.4298875.187851-.5780001.3756943-.6448314.6050873-.0686374.2294006-.1083748.5527191-.2691312.8886795-.1625625.3377686-.4714314.390152-.7550125.417244-.2817751.027092-.5111688.1896591-.6737313.229393-.1607562.0397339-.4027936.0397339-.4027936.0397339l.0126437-.229393c0 0-.7802999.4046021-1.5353124.9573135-.5364567.3937607-.6773437.5220108-.8904814.8688049h-1.1885126c.0650249-.3160934.1733999-.4985199.27455-.6394119.1354687-.1896515-.229394-.7008209-.5780001-.8073883-.3504131-.1083755-1.1596129.1463013-1.1596129.1463013-1.1433563-.3088684-1.1036191-.1210175-2.4637251-.3215103-1.3601069-.202301-1.6021438-1.105423-1.8441815-1.6563339-.243844-.5527115.18785-.3504105-.458787-1.2661819-.6466379-.9157639-2.0338383-1.2137985-2.5991936-1.1993484-.5653582.0126419-.390151.0812836-.3630571-1.6960678.0270948-1.7773514.2817755-1.5353165.8760309-1.6834259.5924501-.1481094.8200388.646637.9157686.7676544.0939255.1210175.1065693.2835846-.027092.2962265-.6574764.0650253-1.051239.202301-1.2390881.3775101-.18785.1752014.0812798.5238113.3901491.7405624.3088684.2149429 1.2390881.7134628 1.5082197.8344879.2691307.1210175 1.0512371.3756943 1.4016495.4443359.3504124.0668335.4027939-.2420425.4840746-.4046021.0704441-.1408844.0270948-.2962265.3359632-.256485 1.8351498.2402267 2.2361374-.0523834 2.3571563-.0397415.1210184.0144501.2835813.1481171.3106747.3775101.0252876.2275848-.6195436.3630524-.9157686.4443359s-1.9941001.1083755-1.9941001.1083755-.4298878.3359604-.5111694 1.1433563c-.0812798.8073959 1.9525576 1.6292343 2.6786699 1.8315353.7279186.202301 2.4926252.4587936 4.4975624.1896591 2.0085504-.2691345 2.8556814-1.5226669 3.2060943-2.8972244.3504125-1.3727493-.7134688-1.8026428-.8760313-1.8170853-.1607563-.0126495-.5111688-.3504181-.6592811-.6050949-.1481126-.2564926-.6195441-.6069031-.9555064-.8092041-.3377688-.2004929-.8489376-.646637-.8489376-.646637s-.0126437-.3359604-.4316939-.4985275c-.4172437-.1607513-.7261124.6881866-.9826 1.25354-.2546813.5653534-.4840753.8092041-.700825 1.2517319-.2149439.4443359-.5653567.5400696-.699019.5400696-.1354685 0-.1752067-.229393-.1752067-.592453 0-.3648605-.3359623-.7279129-.9031248-1.0909729-.5653558-.3648605-1.7105188.2546844-1.8441815.3088684-.135468.0541916-.7802997.3106766-.9699559.3919601-.18785.0794754-.2564878.2004929-.417243.3901443-.1625633.187851-.4569817-.1354675-.5527134-.202301-.0939255-.068634-.2275877-.1878433.0144501-.4985199.2420378-.3088684 1.0096941-.565361 1.3727503-.6737366.364862-.1065674.7676558-.5924454.9844065-.7676544.2149439-.1752014.4443374-.3377686.5924492-.2420349 1.0006633.6376038 2.2216878.8091965 2.4221816.8091965.2023001 0 1.0512378-.0144501.6339941-1.307724-.5725818-1.7755432-2.4384379-2.1404037-3.8780193-2.1945953-1.4413879-.0541839-2.1819494.3088685-2.2632311.3088685-.0794754 0-.0939255-.1607513-.0541878-.1607513.041544 0 .5129747-.3377686.8633881-.5798111.3486052-.2420349.9410558-.6195374 1.1848998-.6195374.2420373 0 1.0367875.2691269 1.3059192.3377686.2691307.0668259.9284124.2275848 1.454031.3901443.5256186.160759 2.5450063 1.7899933 2.9080625 2.1548615.3648628.3630524.6466377 1.2119904.7821065 1.2517319.1336622.0397339.3901497-.175209.5924501-.202301.2023-.0252914.6321874.5798035.7405623 1.0114975.1083751.4298859.1354688.4840775.2564877.5111694.1210186.027092.1607562-.2691345.1607562-.2691345s.1481125-.7550125.0812812-1.8044434c-.0668311-1.051239-.1625626-1.3203659-.4714313-2.2090378-.3106751-.8886795-1.3727498-.982605-1.7231624-1.0909805s-1.226444-.3901443-1.8459878-.4985199c-.619544-.106575-.9428625.229393-1.3601065.417244-.1481118.0668259-.9555058.2022934-1.0223374-.0270996-.2908058-.9844055 1.454031-1.5208588 1.7358065-1.5876923 1.8477938-.4407272 4.418088.4443359 4.5517502 1.5479584.2041061 1.6635513.39015 1.8586273.6069 2.1006699.2149436.2420349.79475.0397339.79475.0397339.2149436.2167511 1.2246377.9573135 1.2246377.9573135s.3233187.160759.1607561.417244c-.1607561.2546844-.2691312 1.2914734 1.0115004 1.1578064 1.2788248-.1354675 1.7087121-1.9381027 1.7087121-1.9381027s.5129752-1.0656891.1481128-3.7714539c-.3630562-2.7057648-3.9719441-5.4819717-7.257513-6.5169525-3.2855687-1.0367889-4.8479757-.917572-5.2525759-.917572-.4027939 0-1.2119937.3233185-1.4811244.3775024-.2691312.0541916-.9555068.5129776-1.1849008.6069031-.229393.0939255-1.022337.4985275-1.1975431.5780029-.1752071.0812759-.7947493.4714279-1.1578064.7279129-.3648615.2546844-.458787.5256195-.5798063.794754-.1210194.2691269-.7803001.7929459-.8615818.8615799-.0812817.0668335 0 .175209 0 .175209.7532063-.3233185 5.8432193-1.0367889 6.2478194-1.051239.4046001-.0126419 2.2487812-.0668335 2.490819-.0668335s.6737313-.1481094.6863751.1625671c.0144501.3088684-1.4124875.5238113-1.5750504.5382614-.1607556.0126419-.8742251.027092-1.3998437.0939255-.5256186.0668259-1.7918 2.0338364-1.9670062 2.2885132-.1733999.2564926-.2420378.1896591-.5653563.3504181-.3233185.1625595-1.454031 1.0367813-1.5895004 1.1867065-.1336622.1463013.1083746.7116623-.0252876.8597717-.1354685.1499176-.5671616-.0921173-.9067383-.2456512-.8037806-.3630524-1.1000051.0523834-1.1000051.0523834l-1.1000061 1.1541901-.2619076-.5761871c0 0 2.7762079-2.2542038 3.5619268-2.8827744.7875242-.6285782.2095242-.8381042.2095242-.8381042s-.5761938-.6285782-.785718-.680954c-.2095251-.0523834-1.885726.2619019-3.1952562.6285706-1.3095322.3666687-1.7285833.7857208-3.0381126 1.9381104-1.3095322 1.1523895-1.8333454 4.1381149-1.6762009 4.7161179.1571426.5761948.2095242 1.4666748.104763 1.7285843-.104763.2619019-.3142891 1.1523819.1571426 1.1523819s.8381004-1.0476227 1.9381065-2.3047714 2.3047762-1.6762009 2.776206-1.414299c.4714308.2619095-.1571436 1.0476303-.4190502 1.5190582-.2619057.4714355-.2095232.6285782-1.2571487 1.9381104s-.3142891 2.3047714-.104763 2.776207c.2095251.4714279.8380995 1.361908.995245 2.8303909.0848932.7839127.3937616 1.3131409.8489361 1.7809601h-11.1680441c-1.4775143 0-2.6732502-1.1975403-2.6732502-2.6732483v-9.5044861c.7297249-.2438431 2.3517361-.8019791 2.6425438-1.0403976.3775063-.3088684 3.722681-2.8358154 3.5962448-7.3658905-.0126438-.4840775.1517239-.6412201.3630562-.87603.1210175-.133667 1.2932739-1.2661819 1.0909748-1.9652023-.5382633.7947464-1.0765266 1.2119904-1.2390881 1.2932739-.1607571.0812836-.3359623.175209-.4569817-.1228256-.1210194-.2944183-.229393-1.0909729-1.8315372-.8615799-1.4684811.2113342-2.6786671.4605942-4.1652126 2.4781723v-11.4624634c0-1.4757004 1.1957359-2.6732483 2.6732502-2.6732483h2.1313763c.2348099.4786606.3684731.787529.5454845 1.1975479.2546825.5888367 1.0801392 2.6913071 1.4739017 3.3596191.3919563.6683121.9627304 1.5515747.9627304 1.5515747s-.1770115 1.396225-.1372738 2.2018127c.0379314.8055878.4714317 2.5937805.4714317 2.5937805s.1571426.2926102.0776691.6087036c-.0776691.3142853-.1968822.646637-.1174088 1.2174149.0776691.5689697.3341579 1.4540329.7857208 1.8658524.4515629.4118271.7658501.6484451 1.0205307.6285782.2564869-.0198669.6484432-.3919601 1.1596127-1.5913086 0 0-.2745495-.0379333-.4912987.0198669-.2149448.0596085-.0776691-.1174011-.0379333-.1770096.0379333-.0578003.5491009-.451561.2944183-.9428635-.256485-.4912949-1.4811249-1.968811-1.2192192-2.317421.1770134-.236618.2763577-.0198669.5509071.2745514.2745514.2944183.8832569 1.0024719.9826012.9627304.097538-.0397339-.1968803-1.0620728-1.2571507-2.1620789 0 0 .2944202-.1372757 0-.6863708-.2944183-.5509109-.7279205-1.1198807-.7857189-1.2372818-.0596066-.1192169-.0596066-.3937683.1174068-.2366257.1770115.1571503 1.8459873 1.4919662 3.4770308 1.4919662 1.1794806 0 1.2788248-.3630524 1.4937696-.4714279.195075-.0975418.4912987-.431694.5490999-.6087112.0596066-.1752014.1372757-.3124771.4316931-.4118271.2962255-.0975342 1.2589569-.3341522 1.3962326-1.591301 0 0 .5111675-.6285782-.1192131-1.5913086 0 0 4.9238381.6628952 7.0118623-3.9484634h9.7663953c1.4775124 0 2.6732502 1.1975479 2.6732502 2.6732483v5.1550446c-.8344874.493103-2.6407375.7170792-2.8881941.7170792-.296225-.0000002-1.5714376.0198668-1.8080563-.4714357m-21.4528318 11.1644363c-.1571445-.0397415-.3377705.0361252-.5852261-.2113342-.0794754-.0776672-.1770115-.2510681-.1824322-.4226608-.0144501-.5111694-1.119875.0198669-1.2571487.0632172-.3522186.1101837-.9031258.4479523-2.1205387 1.8225098-1.2192192 1.376358-1.6509132 4.2049484-1.690649 5.3248215-.0397377 1.1198807.4515629 3.1627426 1.905592 5.0882111 1.4540329 1.9254608 3.9882011 2.2596207 4.3223591 2.2596207.3341541 0 .6484432-.0397415.6683121-.2366257.0198669-.1968765-.0397396-.1968765-.0397396-.4316864 0 0 .1770153-.4317017.1174088-1.1198807-.1336632-1.5696335-1.6292381-2.790657-2.3571568-3.3993607-.7261143-.6087112-.6484451-1.414299-.6285744-2.2198868.0198669-.8037796.6484413-3.4770279.785717-3.9285889s1.0259495-2.0085526 1.1650314-2.2054291c.1372738-.1968842.0523815-.3431931-.1029549-.382927m3.8996926-8.2401123c-.7947493.5653534-1.2517319 1.6292343-1.7358055 3.0037918-.4858818 1.3727493-.7676563 2.3300629-.9844074 2.9477997-.2149448.619545-.3630562.6737289-.3901482.8362961-.0270958.1607513.027092.2546768.0939255.3215103 0 0 1.1848974-.187851 2.1693039-.6321869.9826012-.4443359.9555073-.5256195 1.8026381-1.0909729.848938-.565361 1.1867075-1.7358093 1.4142942-2.1675034.229393-.431694 1.0133066-.7604294 1.1216812-.814621.1083755-.0523758.4605932-.3088684.4605932-.3088684 3.4210382-1.3059158 5.7167826-1.4088745 5.8251576-1.4359665.1083751-.0252838.1607556-.1210175.1607556-.1210175-.3233185-.4967194-3.3668499-.592453-3.3668499-.592453s-1.0494308.027092-2.7725935-.4714279c-1.7249689-.4967193-3.0037946-.0397414-3.7985448.5256196" fill="#dc241f"/>
               </g>
               <g id="g2596" transform="matrix(1.25 0 0 -1.25 -85.474156 891.73998)">
                  <path id="path2598" d="m48.7751846-97.0943527c-10.9783897 0-13.7744637 6.8836212-13.7744637 14.3127289 0 7.3622742 2.8683243 14.2476959 13.8412971 14.2476959 10.8374977 0 13.8340683-6.8854218 13.8340683-14.2476959.0000001-7.4959412-2.9965705-14.3127289-13.9009017-14.3127289m.0668335 23.7883148c-6.4736023 0-7.9059601-4.224823-7.9059601-9.4755859 0-5.3157959 1.4323578-9.5424194 7.8391266-9.5424194 6.5386276 0 7.9709816 4.15979 7.9709816 9.5424194 0 5.1821289-1.2932739 9.4755859-7.9041481 9.4755859" fill="#dc241f"/>
               </g>
            </g>
         </g>
      </g>
   </switch>
</svg>
